<?xml version="1.0" encoding="UTF-8"?>
<glyph name="w" format="1">
  <advance width="930"/>
  <unicode hex="0077"/>
  <outline>
    <contour>
      <point x="435" y="385" type="line"/>
      <point x="435" y="400" type="line"/>
      <point x="420" y="400" type="line"/>
      <point x="420" y="385" type="line"/>
    </contour>
    <contour>
      <point x="450" y="385" type="line"/>
      <point x="450" y="400" type="line"/>
      <point x="435" y="400" type="line"/>
      <point x="435" y="385" type="line"/>
    </contour>
    <contour>
      <point x="465" y="385" type="line"/>
      <point x="465" y="400" type="line"/>
      <point x="450" y="400" type="line"/>
      <point x="450" y="385" type="line"/>
    </contour>
    <contour>
      <point x="480" y="385" type="line"/>
      <point x="480" y="400" type="line"/>
      <point x="465" y="400" type="line"/>
      <point x="465" y="385" type="line"/>
    </contour>
    <contour>
      <point x="405" y="370" type="line"/>
      <point x="405" y="385" type="line"/>
      <point x="390" y="385" type="line"/>
      <point x="390" y="370" type="line"/>
    </contour>
    <contour>
      <point x="420" y="370" type="line"/>
      <point x="420" y="385" type="line"/>
      <point x="405" y="385" type="line"/>
      <point x="405" y="370" type="line"/>
    </contour>
    <contour>
      <point x="435" y="370" type="line"/>
      <point x="435" y="385" type="line"/>
      <point x="420" y="385" type="line"/>
      <point x="420" y="370" type="line"/>
    </contour>
    <contour>
      <point x="450" y="370" type="line"/>
      <point x="450" y="385" type="line"/>
      <point x="435" y="385" type="line"/>
      <point x="435" y="370" type="line"/>
    </contour>
    <contour>
      <point x="480" y="370" type="line"/>
      <point x="480" y="385" type="line"/>
      <point x="465" y="385" type="line"/>
      <point x="465" y="370" type="line"/>
    </contour>
    <contour>
      <point x="495" y="370" type="line"/>
      <point x="495" y="385" type="line"/>
      <point x="480" y="385" type="line"/>
      <point x="480" y="370" type="line"/>
    </contour>
    <contour>
      <point x="375" y="355" type="line"/>
      <point x="375" y="370" type="line"/>
      <point x="360" y="370" type="line"/>
      <point x="360" y="355" type="line"/>
    </contour>
    <contour>
      <point x="390" y="355" type="line"/>
      <point x="390" y="370" type="line"/>
      <point x="375" y="370" type="line"/>
      <point x="375" y="355" type="line"/>
    </contour>
    <contour>
      <point x="405" y="355" type="line"/>
      <point x="405" y="370" type="line"/>
      <point x="390" y="370" type="line"/>
      <point x="390" y="355" type="line"/>
    </contour>
    <contour>
      <point x="420" y="355" type="line"/>
      <point x="420" y="370" type="line"/>
      <point x="405" y="370" type="line"/>
      <point x="405" y="355" type="line"/>
    </contour>
    <contour>
      <point x="435" y="355" type="line"/>
      <point x="435" y="370" type="line"/>
      <point x="420" y="370" type="line"/>
      <point x="420" y="355" type="line"/>
    </contour>
    <contour>
      <point x="450" y="355" type="line"/>
      <point x="450" y="370" type="line"/>
      <point x="435" y="370" type="line"/>
      <point x="435" y="355" type="line"/>
    </contour>
    <contour>
      <point x="465" y="355" type="line"/>
      <point x="465" y="370" type="line"/>
      <point x="450" y="370" type="line"/>
      <point x="450" y="355" type="line"/>
    </contour>
    <contour>
      <point x="480" y="355" type="line"/>
      <point x="480" y="370" type="line"/>
      <point x="465" y="370" type="line"/>
      <point x="465" y="355" type="line"/>
    </contour>
    <contour>
      <point x="495" y="355" type="line"/>
      <point x="495" y="370" type="line"/>
      <point x="480" y="370" type="line"/>
      <point x="480" y="355" type="line"/>
    </contour>
    <contour>
      <point x="360" y="340" type="line"/>
      <point x="360" y="355" type="line"/>
      <point x="345" y="355" type="line"/>
      <point x="345" y="340" type="line"/>
    </contour>
    <contour>
      <point x="375" y="340" type="line"/>
      <point x="375" y="355" type="line"/>
      <point x="360" y="355" type="line"/>
      <point x="360" y="340" type="line"/>
    </contour>
    <contour>
      <point x="390" y="340" type="line"/>
      <point x="390" y="355" type="line"/>
      <point x="375" y="355" type="line"/>
      <point x="375" y="340" type="line"/>
    </contour>
    <contour>
      <point x="405" y="340" type="line"/>
      <point x="405" y="355" type="line"/>
      <point x="390" y="355" type="line"/>
      <point x="390" y="340" type="line"/>
    </contour>
    <contour>
      <point x="420" y="340" type="line"/>
      <point x="420" y="355" type="line"/>
      <point x="405" y="355" type="line"/>
      <point x="405" y="340" type="line"/>
    </contour>
    <contour>
      <point x="435" y="340" type="line"/>
      <point x="435" y="355" type="line"/>
      <point x="420" y="355" type="line"/>
      <point x="420" y="340" type="line"/>
    </contour>
    <contour>
      <point x="450" y="340" type="line"/>
      <point x="450" y="355" type="line"/>
      <point x="435" y="355" type="line"/>
      <point x="435" y="340" type="line"/>
    </contour>
    <contour>
      <point x="465" y="340" type="line"/>
      <point x="465" y="355" type="line"/>
      <point x="450" y="355" type="line"/>
      <point x="450" y="340" type="line"/>
    </contour>
    <contour>
      <point x="480" y="340" type="line"/>
      <point x="480" y="355" type="line"/>
      <point x="465" y="355" type="line"/>
      <point x="465" y="340" type="line"/>
    </contour>
    <contour>
      <point x="495" y="340" type="line"/>
      <point x="495" y="355" type="line"/>
      <point x="480" y="355" type="line"/>
      <point x="480" y="340" type="line"/>
    </contour>
    <contour>
      <point x="510" y="340" type="line"/>
      <point x="510" y="355" type="line"/>
      <point x="495" y="355" type="line"/>
      <point x="495" y="340" type="line"/>
    </contour>
    <contour>
      <point x="525" y="340" type="line"/>
      <point x="525" y="355" type="line"/>
      <point x="510" y="355" type="line"/>
      <point x="510" y="340" type="line"/>
    </contour>
    <contour>
      <point x="600" y="340" type="line"/>
      <point x="600" y="355" type="line"/>
      <point x="585" y="355" type="line"/>
      <point x="585" y="340" type="line"/>
    </contour>
    <contour>
      <point x="615" y="340" type="line"/>
      <point x="615" y="355" type="line"/>
      <point x="600" y="355" type="line"/>
      <point x="600" y="340" type="line"/>
    </contour>
    <contour>
      <point x="345" y="325" type="line"/>
      <point x="345" y="340" type="line"/>
      <point x="330" y="340" type="line"/>
      <point x="330" y="325" type="line"/>
    </contour>
    <contour>
      <point x="360" y="325" type="line"/>
      <point x="360" y="340" type="line"/>
      <point x="345" y="340" type="line"/>
      <point x="345" y="325" type="line"/>
    </contour>
    <contour>
      <point x="375" y="325" type="line"/>
      <point x="375" y="340" type="line"/>
      <point x="360" y="340" type="line"/>
      <point x="360" y="325" type="line"/>
    </contour>
    <contour>
      <point x="390" y="325" type="line"/>
      <point x="390" y="340" type="line"/>
      <point x="375" y="340" type="line"/>
      <point x="375" y="325" type="line"/>
    </contour>
    <contour>
      <point x="405" y="325" type="line"/>
      <point x="405" y="340" type="line"/>
      <point x="390" y="340" type="line"/>
      <point x="390" y="325" type="line"/>
    </contour>
    <contour>
      <point x="420" y="325" type="line"/>
      <point x="420" y="340" type="line"/>
      <point x="405" y="340" type="line"/>
      <point x="405" y="325" type="line"/>
    </contour>
    <contour>
      <point x="435" y="325" type="line"/>
      <point x="435" y="340" type="line"/>
      <point x="420" y="340" type="line"/>
      <point x="420" y="325" type="line"/>
    </contour>
    <contour>
      <point x="450" y="325" type="line"/>
      <point x="450" y="340" type="line"/>
      <point x="435" y="340" type="line"/>
      <point x="435" y="325" type="line"/>
    </contour>
    <contour>
      <point x="465" y="325" type="line"/>
      <point x="465" y="340" type="line"/>
      <point x="450" y="340" type="line"/>
      <point x="450" y="325" type="line"/>
    </contour>
    <contour>
      <point x="480" y="325" type="line"/>
      <point x="480" y="340" type="line"/>
      <point x="465" y="340" type="line"/>
      <point x="465" y="325" type="line"/>
    </contour>
    <contour>
      <point x="495" y="325" type="line"/>
      <point x="495" y="340" type="line"/>
      <point x="480" y="340" type="line"/>
      <point x="480" y="325" type="line"/>
    </contour>
    <contour>
      <point x="510" y="325" type="line"/>
      <point x="510" y="340" type="line"/>
      <point x="495" y="340" type="line"/>
      <point x="495" y="325" type="line"/>
    </contour>
    <contour>
      <point x="525" y="325" type="line"/>
      <point x="525" y="340" type="line"/>
      <point x="510" y="340" type="line"/>
      <point x="510" y="325" type="line"/>
    </contour>
    <contour>
      <point x="540" y="325" type="line"/>
      <point x="540" y="340" type="line"/>
      <point x="525" y="340" type="line"/>
      <point x="525" y="325" type="line"/>
    </contour>
    <contour>
      <point x="555" y="325" type="line"/>
      <point x="555" y="340" type="line"/>
      <point x="540" y="340" type="line"/>
      <point x="540" y="325" type="line"/>
    </contour>
    <contour>
      <point x="570" y="325" type="line"/>
      <point x="570" y="340" type="line"/>
      <point x="555" y="340" type="line"/>
      <point x="555" y="325" type="line"/>
    </contour>
    <contour>
      <point x="585" y="325" type="line"/>
      <point x="585" y="340" type="line"/>
      <point x="570" y="340" type="line"/>
      <point x="570" y="325" type="line"/>
    </contour>
    <contour>
      <point x="600" y="325" type="line"/>
      <point x="600" y="340" type="line"/>
      <point x="585" y="340" type="line"/>
      <point x="585" y="325" type="line"/>
    </contour>
    <contour>
      <point x="15" y="310" type="line"/>
      <point x="15" y="325" type="line"/>
      <point x="0" y="325" type="line"/>
      <point x="0" y="310" type="line"/>
    </contour>
    <contour>
      <point x="30" y="310" type="line"/>
      <point x="30" y="325" type="line"/>
      <point x="15" y="325" type="line"/>
      <point x="15" y="310" type="line"/>
    </contour>
    <contour>
      <point x="45" y="310" type="line"/>
      <point x="45" y="325" type="line"/>
      <point x="30" y="325" type="line"/>
      <point x="30" y="310" type="line"/>
    </contour>
    <contour>
      <point x="330" y="310" type="line"/>
      <point x="330" y="325" type="line"/>
      <point x="315" y="325" type="line"/>
      <point x="315" y="310" type="line"/>
    </contour>
    <contour>
      <point x="345" y="310" type="line"/>
      <point x="345" y="325" type="line"/>
      <point x="330" y="325" type="line"/>
      <point x="330" y="310" type="line"/>
    </contour>
    <contour>
      <point x="360" y="310" type="line"/>
      <point x="360" y="325" type="line"/>
      <point x="345" y="325" type="line"/>
      <point x="345" y="310" type="line"/>
    </contour>
    <contour>
      <point x="375" y="310" type="line"/>
      <point x="375" y="325" type="line"/>
      <point x="360" y="325" type="line"/>
      <point x="360" y="310" type="line"/>
    </contour>
    <contour>
      <point x="390" y="310" type="line"/>
      <point x="390" y="325" type="line"/>
      <point x="375" y="325" type="line"/>
      <point x="375" y="310" type="line"/>
    </contour>
    <contour>
      <point x="405" y="310" type="line"/>
      <point x="405" y="325" type="line"/>
      <point x="390" y="325" type="line"/>
      <point x="390" y="310" type="line"/>
    </contour>
    <contour>
      <point x="420" y="310" type="line"/>
      <point x="420" y="325" type="line"/>
      <point x="405" y="325" type="line"/>
      <point x="405" y="310" type="line"/>
    </contour>
    <contour>
      <point x="435" y="310" type="line"/>
      <point x="435" y="325" type="line"/>
      <point x="420" y="325" type="line"/>
      <point x="420" y="310" type="line"/>
    </contour>
    <contour>
      <point x="450" y="310" type="line"/>
      <point x="450" y="325" type="line"/>
      <point x="435" y="325" type="line"/>
      <point x="435" y="310" type="line"/>
    </contour>
    <contour>
      <point x="465" y="310" type="line"/>
      <point x="465" y="325" type="line"/>
      <point x="450" y="325" type="line"/>
      <point x="450" y="310" type="line"/>
    </contour>
    <contour>
      <point x="480" y="310" type="line"/>
      <point x="480" y="325" type="line"/>
      <point x="465" y="325" type="line"/>
      <point x="465" y="310" type="line"/>
    </contour>
    <contour>
      <point x="555" y="310" type="line"/>
      <point x="555" y="325" type="line"/>
      <point x="540" y="325" type="line"/>
      <point x="540" y="310" type="line"/>
    </contour>
    <contour>
      <point x="570" y="310" type="line"/>
      <point x="570" y="325" type="line"/>
      <point x="555" y="325" type="line"/>
      <point x="555" y="310" type="line"/>
    </contour>
    <contour>
      <point x="900" y="310" type="line"/>
      <point x="900" y="325" type="line"/>
      <point x="885" y="325" type="line"/>
      <point x="885" y="310" type="line"/>
    </contour>
    <contour>
      <point x="915" y="310" type="line"/>
      <point x="915" y="325" type="line"/>
      <point x="900" y="325" type="line"/>
      <point x="900" y="310" type="line"/>
    </contour>
    <contour>
      <point x="930" y="310" type="line"/>
      <point x="930" y="325" type="line"/>
      <point x="915" y="325" type="line"/>
      <point x="915" y="310" type="line"/>
    </contour>
    <contour>
      <point x="15" y="295" type="line"/>
      <point x="15" y="310" type="line"/>
      <point x="0" y="310" type="line"/>
      <point x="0" y="295" type="line"/>
    </contour>
    <contour>
      <point x="30" y="295" type="line"/>
      <point x="30" y="310" type="line"/>
      <point x="15" y="310" type="line"/>
      <point x="15" y="295" type="line"/>
    </contour>
    <contour>
      <point x="45" y="295" type="line"/>
      <point x="45" y="310" type="line"/>
      <point x="30" y="310" type="line"/>
      <point x="30" y="295" type="line"/>
    </contour>
    <contour>
      <point x="60" y="295" type="line"/>
      <point x="60" y="310" type="line"/>
      <point x="45" y="310" type="line"/>
      <point x="45" y="295" type="line"/>
    </contour>
    <contour>
      <point x="315" y="295" type="line"/>
      <point x="315" y="310" type="line"/>
      <point x="300" y="310" type="line"/>
      <point x="300" y="295" type="line"/>
    </contour>
    <contour>
      <point x="330" y="295" type="line"/>
      <point x="330" y="310" type="line"/>
      <point x="315" y="310" type="line"/>
      <point x="315" y="295" type="line"/>
    </contour>
    <contour>
      <point x="345" y="295" type="line"/>
      <point x="345" y="310" type="line"/>
      <point x="330" y="310" type="line"/>
      <point x="330" y="295" type="line"/>
    </contour>
    <contour>
      <point x="360" y="295" type="line"/>
      <point x="360" y="310" type="line"/>
      <point x="345" y="310" type="line"/>
      <point x="345" y="295" type="line"/>
    </contour>
    <contour>
      <point x="375" y="295" type="line"/>
      <point x="375" y="310" type="line"/>
      <point x="360" y="310" type="line"/>
      <point x="360" y="295" type="line"/>
    </contour>
    <contour>
      <point x="390" y="295" type="line"/>
      <point x="390" y="310" type="line"/>
      <point x="375" y="310" type="line"/>
      <point x="375" y="295" type="line"/>
    </contour>
    <contour>
      <point x="405" y="295" type="line"/>
      <point x="405" y="310" type="line"/>
      <point x="390" y="310" type="line"/>
      <point x="390" y="295" type="line"/>
    </contour>
    <contour>
      <point x="420" y="295" type="line"/>
      <point x="420" y="310" type="line"/>
      <point x="405" y="310" type="line"/>
      <point x="405" y="295" type="line"/>
    </contour>
    <contour>
      <point x="435" y="295" type="line"/>
      <point x="435" y="310" type="line"/>
      <point x="420" y="310" type="line"/>
      <point x="420" y="295" type="line"/>
    </contour>
    <contour>
      <point x="450" y="295" type="line"/>
      <point x="450" y="310" type="line"/>
      <point x="435" y="310" type="line"/>
      <point x="435" y="295" type="line"/>
    </contour>
    <contour>
      <point x="465" y="295" type="line"/>
      <point x="465" y="310" type="line"/>
      <point x="450" y="310" type="line"/>
      <point x="450" y="295" type="line"/>
    </contour>
    <contour>
      <point x="480" y="295" type="line"/>
      <point x="480" y="310" type="line"/>
      <point x="465" y="310" type="line"/>
      <point x="465" y="295" type="line"/>
    </contour>
    <contour>
      <point x="540" y="295" type="line"/>
      <point x="540" y="310" type="line"/>
      <point x="525" y="310" type="line"/>
      <point x="525" y="295" type="line"/>
    </contour>
    <contour>
      <point x="555" y="295" type="line"/>
      <point x="555" y="310" type="line"/>
      <point x="540" y="310" type="line"/>
      <point x="540" y="295" type="line"/>
    </contour>
    <contour>
      <point x="885" y="295" type="line"/>
      <point x="885" y="310" type="line"/>
      <point x="870" y="310" type="line"/>
      <point x="870" y="295" type="line"/>
    </contour>
    <contour>
      <point x="900" y="295" type="line"/>
      <point x="900" y="310" type="line"/>
      <point x="885" y="310" type="line"/>
      <point x="885" y="295" type="line"/>
    </contour>
    <contour>
      <point x="915" y="295" type="line"/>
      <point x="915" y="310" type="line"/>
      <point x="900" y="310" type="line"/>
      <point x="900" y="295" type="line"/>
    </contour>
    <contour>
      <point x="930" y="295" type="line"/>
      <point x="930" y="310" type="line"/>
      <point x="915" y="310" type="line"/>
      <point x="915" y="295" type="line"/>
    </contour>
    <contour>
      <point x="15" y="280" type="line"/>
      <point x="15" y="295" type="line"/>
      <point x="0" y="295" type="line"/>
      <point x="0" y="280" type="line"/>
    </contour>
    <contour>
      <point x="30" y="280" type="line"/>
      <point x="30" y="295" type="line"/>
      <point x="15" y="295" type="line"/>
      <point x="15" y="280" type="line"/>
    </contour>
    <contour>
      <point x="45" y="280" type="line"/>
      <point x="45" y="295" type="line"/>
      <point x="30" y="295" type="line"/>
      <point x="30" y="280" type="line"/>
    </contour>
    <contour>
      <point x="60" y="280" type="line"/>
      <point x="60" y="295" type="line"/>
      <point x="45" y="295" type="line"/>
      <point x="45" y="280" type="line"/>
    </contour>
    <contour>
      <point x="75" y="280" type="line"/>
      <point x="75" y="295" type="line"/>
      <point x="60" y="295" type="line"/>
      <point x="60" y="280" type="line"/>
    </contour>
    <contour>
      <point x="90" y="280" type="line"/>
      <point x="90" y="295" type="line"/>
      <point x="75" y="295" type="line"/>
      <point x="75" y="280" type="line"/>
    </contour>
    <contour>
      <point x="105" y="280" type="line"/>
      <point x="105" y="295" type="line"/>
      <point x="90" y="295" type="line"/>
      <point x="90" y="280" type="line"/>
    </contour>
    <contour>
      <point x="120" y="280" type="line"/>
      <point x="120" y="295" type="line"/>
      <point x="105" y="295" type="line"/>
      <point x="105" y="280" type="line"/>
    </contour>
    <contour>
      <point x="135" y="280" type="line"/>
      <point x="135" y="295" type="line"/>
      <point x="120" y="295" type="line"/>
      <point x="120" y="280" type="line"/>
    </contour>
    <contour>
      <point x="150" y="280" type="line"/>
      <point x="150" y="295" type="line"/>
      <point x="135" y="295" type="line"/>
      <point x="135" y="280" type="line"/>
    </contour>
    <contour>
      <point x="165" y="280" type="line"/>
      <point x="165" y="295" type="line"/>
      <point x="150" y="295" type="line"/>
      <point x="150" y="280" type="line"/>
    </contour>
    <contour>
      <point x="315" y="280" type="line"/>
      <point x="315" y="295" type="line"/>
      <point x="300" y="295" type="line"/>
      <point x="300" y="280" type="line"/>
    </contour>
    <contour>
      <point x="330" y="280" type="line"/>
      <point x="330" y="295" type="line"/>
      <point x="315" y="295" type="line"/>
      <point x="315" y="280" type="line"/>
    </contour>
    <contour>
      <point x="345" y="280" type="line"/>
      <point x="345" y="295" type="line"/>
      <point x="330" y="295" type="line"/>
      <point x="330" y="280" type="line"/>
    </contour>
    <contour>
      <point x="360" y="280" type="line"/>
      <point x="360" y="295" type="line"/>
      <point x="345" y="295" type="line"/>
      <point x="345" y="280" type="line"/>
    </contour>
    <contour>
      <point x="375" y="280" type="line"/>
      <point x="375" y="295" type="line"/>
      <point x="360" y="295" type="line"/>
      <point x="360" y="280" type="line"/>
    </contour>
    <contour>
      <point x="390" y="280" type="line"/>
      <point x="390" y="295" type="line"/>
      <point x="375" y="295" type="line"/>
      <point x="375" y="280" type="line"/>
    </contour>
    <contour>
      <point x="405" y="280" type="line"/>
      <point x="405" y="295" type="line"/>
      <point x="390" y="295" type="line"/>
      <point x="390" y="280" type="line"/>
    </contour>
    <contour>
      <point x="420" y="280" type="line"/>
      <point x="420" y="295" type="line"/>
      <point x="405" y="295" type="line"/>
      <point x="405" y="280" type="line"/>
    </contour>
    <contour>
      <point x="435" y="280" type="line"/>
      <point x="435" y="295" type="line"/>
      <point x="420" y="295" type="line"/>
      <point x="420" y="280" type="line"/>
    </contour>
    <contour>
      <point x="450" y="280" type="line"/>
      <point x="450" y="295" type="line"/>
      <point x="435" y="295" type="line"/>
      <point x="435" y="280" type="line"/>
    </contour>
    <contour>
      <point x="465" y="280" type="line"/>
      <point x="465" y="295" type="line"/>
      <point x="450" y="295" type="line"/>
      <point x="450" y="280" type="line"/>
    </contour>
    <contour>
      <point x="480" y="280" type="line"/>
      <point x="480" y="295" type="line"/>
      <point x="465" y="295" type="line"/>
      <point x="465" y="280" type="line"/>
    </contour>
    <contour>
      <point x="525" y="280" type="line"/>
      <point x="525" y="295" type="line"/>
      <point x="510" y="295" type="line"/>
      <point x="510" y="280" type="line"/>
    </contour>
    <contour>
      <point x="540" y="280" type="line"/>
      <point x="540" y="295" type="line"/>
      <point x="525" y="295" type="line"/>
      <point x="525" y="280" type="line"/>
    </contour>
    <contour>
      <point x="780" y="280" type="line"/>
      <point x="780" y="295" type="line"/>
      <point x="765" y="295" type="line"/>
      <point x="765" y="280" type="line"/>
    </contour>
    <contour>
      <point x="795" y="280" type="line"/>
      <point x="795" y="295" type="line"/>
      <point x="780" y="295" type="line"/>
      <point x="780" y="280" type="line"/>
    </contour>
    <contour>
      <point x="810" y="280" type="line"/>
      <point x="810" y="295" type="line"/>
      <point x="795" y="295" type="line"/>
      <point x="795" y="280" type="line"/>
    </contour>
    <contour>
      <point x="825" y="280" type="line"/>
      <point x="825" y="295" type="line"/>
      <point x="810" y="295" type="line"/>
      <point x="810" y="280" type="line"/>
    </contour>
    <contour>
      <point x="840" y="280" type="line"/>
      <point x="840" y="295" type="line"/>
      <point x="825" y="295" type="line"/>
      <point x="825" y="280" type="line"/>
    </contour>
    <contour>
      <point x="855" y="280" type="line"/>
      <point x="855" y="295" type="line"/>
      <point x="840" y="295" type="line"/>
      <point x="840" y="280" type="line"/>
    </contour>
    <contour>
      <point x="870" y="280" type="line"/>
      <point x="870" y="295" type="line"/>
      <point x="855" y="295" type="line"/>
      <point x="855" y="280" type="line"/>
    </contour>
    <contour>
      <point x="885" y="280" type="line"/>
      <point x="885" y="295" type="line"/>
      <point x="870" y="295" type="line"/>
      <point x="870" y="280" type="line"/>
    </contour>
    <contour>
      <point x="900" y="280" type="line"/>
      <point x="900" y="295" type="line"/>
      <point x="885" y="295" type="line"/>
      <point x="885" y="280" type="line"/>
    </contour>
    <contour>
      <point x="915" y="280" type="line"/>
      <point x="915" y="295" type="line"/>
      <point x="900" y="295" type="line"/>
      <point x="900" y="280" type="line"/>
    </contour>
    <contour>
      <point x="930" y="280" type="line"/>
      <point x="930" y="295" type="line"/>
      <point x="915" y="295" type="line"/>
      <point x="915" y="280" type="line"/>
    </contour>
    <contour>
      <point x="15" y="265" type="line"/>
      <point x="15" y="280" type="line"/>
      <point x="0" y="280" type="line"/>
      <point x="0" y="265" type="line"/>
    </contour>
    <contour>
      <point x="30" y="265" type="line"/>
      <point x="30" y="280" type="line"/>
      <point x="15" y="280" type="line"/>
      <point x="15" y="265" type="line"/>
    </contour>
    <contour>
      <point x="45" y="265" type="line"/>
      <point x="45" y="280" type="line"/>
      <point x="30" y="280" type="line"/>
      <point x="30" y="265" type="line"/>
    </contour>
    <contour>
      <point x="60" y="265" type="line"/>
      <point x="60" y="280" type="line"/>
      <point x="45" y="280" type="line"/>
      <point x="45" y="265" type="line"/>
    </contour>
    <contour>
      <point x="75" y="265" type="line"/>
      <point x="75" y="280" type="line"/>
      <point x="60" y="280" type="line"/>
      <point x="60" y="265" type="line"/>
    </contour>
    <contour>
      <point x="90" y="265" type="line"/>
      <point x="90" y="280" type="line"/>
      <point x="75" y="280" type="line"/>
      <point x="75" y="265" type="line"/>
    </contour>
    <contour>
      <point x="105" y="265" type="line"/>
      <point x="105" y="280" type="line"/>
      <point x="90" y="280" type="line"/>
      <point x="90" y="265" type="line"/>
    </contour>
    <contour>
      <point x="120" y="265" type="line"/>
      <point x="120" y="280" type="line"/>
      <point x="105" y="280" type="line"/>
      <point x="105" y="265" type="line"/>
    </contour>
    <contour>
      <point x="135" y="265" type="line"/>
      <point x="135" y="280" type="line"/>
      <point x="120" y="280" type="line"/>
      <point x="120" y="265" type="line"/>
    </contour>
    <contour>
      <point x="150" y="265" type="line"/>
      <point x="150" y="280" type="line"/>
      <point x="135" y="280" type="line"/>
      <point x="135" y="265" type="line"/>
    </contour>
    <contour>
      <point x="165" y="265" type="line"/>
      <point x="165" y="280" type="line"/>
      <point x="150" y="280" type="line"/>
      <point x="150" y="265" type="line"/>
    </contour>
    <contour>
      <point x="180" y="265" type="line"/>
      <point x="180" y="280" type="line"/>
      <point x="165" y="280" type="line"/>
      <point x="165" y="265" type="line"/>
    </contour>
    <contour>
      <point x="195" y="265" type="line"/>
      <point x="195" y="280" type="line"/>
      <point x="180" y="280" type="line"/>
      <point x="180" y="265" type="line"/>
    </contour>
    <contour>
      <point x="210" y="265" type="line"/>
      <point x="210" y="280" type="line"/>
      <point x="195" y="280" type="line"/>
      <point x="195" y="265" type="line"/>
    </contour>
    <contour>
      <point x="225" y="265" type="line"/>
      <point x="225" y="280" type="line"/>
      <point x="210" y="280" type="line"/>
      <point x="210" y="265" type="line"/>
    </contour>
    <contour>
      <point x="240" y="265" type="line"/>
      <point x="240" y="280" type="line"/>
      <point x="225" y="280" type="line"/>
      <point x="225" y="265" type="line"/>
    </contour>
    <contour>
      <point x="255" y="265" type="line"/>
      <point x="255" y="280" type="line"/>
      <point x="240" y="280" type="line"/>
      <point x="240" y="265" type="line"/>
    </contour>
    <contour>
      <point x="270" y="265" type="line"/>
      <point x="270" y="280" type="line"/>
      <point x="255" y="280" type="line"/>
      <point x="255" y="265" type="line"/>
    </contour>
    <contour>
      <point x="285" y="265" type="line"/>
      <point x="285" y="280" type="line"/>
      <point x="270" y="280" type="line"/>
      <point x="270" y="265" type="line"/>
    </contour>
    <contour>
      <point x="300" y="265" type="line"/>
      <point x="300" y="280" type="line"/>
      <point x="285" y="280" type="line"/>
      <point x="285" y="265" type="line"/>
    </contour>
    <contour>
      <point x="315" y="265" type="line"/>
      <point x="315" y="280" type="line"/>
      <point x="300" y="280" type="line"/>
      <point x="300" y="265" type="line"/>
    </contour>
    <contour>
      <point x="330" y="265" type="line"/>
      <point x="330" y="280" type="line"/>
      <point x="315" y="280" type="line"/>
      <point x="315" y="265" type="line"/>
    </contour>
    <contour>
      <point x="345" y="265" type="line"/>
      <point x="345" y="280" type="line"/>
      <point x="330" y="280" type="line"/>
      <point x="330" y="265" type="line"/>
    </contour>
    <contour>
      <point x="360" y="265" type="line"/>
      <point x="360" y="280" type="line"/>
      <point x="345" y="280" type="line"/>
      <point x="345" y="265" type="line"/>
    </contour>
    <contour>
      <point x="375" y="265" type="line"/>
      <point x="375" y="280" type="line"/>
      <point x="360" y="280" type="line"/>
      <point x="360" y="265" type="line"/>
    </contour>
    <contour>
      <point x="390" y="265" type="line"/>
      <point x="390" y="280" type="line"/>
      <point x="375" y="280" type="line"/>
      <point x="375" y="265" type="line"/>
    </contour>
    <contour>
      <point x="405" y="265" type="line"/>
      <point x="405" y="280" type="line"/>
      <point x="390" y="280" type="line"/>
      <point x="390" y="265" type="line"/>
    </contour>
    <contour>
      <point x="420" y="265" type="line"/>
      <point x="420" y="280" type="line"/>
      <point x="405" y="280" type="line"/>
      <point x="405" y="265" type="line"/>
    </contour>
    <contour>
      <point x="435" y="265" type="line"/>
      <point x="435" y="280" type="line"/>
      <point x="420" y="280" type="line"/>
      <point x="420" y="265" type="line"/>
    </contour>
    <contour>
      <point x="450" y="265" type="line"/>
      <point x="450" y="280" type="line"/>
      <point x="435" y="280" type="line"/>
      <point x="435" y="265" type="line"/>
    </contour>
    <contour>
      <point x="465" y="265" type="line"/>
      <point x="465" y="280" type="line"/>
      <point x="450" y="280" type="line"/>
      <point x="450" y="265" type="line"/>
    </contour>
    <contour>
      <point x="480" y="265" type="line"/>
      <point x="480" y="280" type="line"/>
      <point x="465" y="280" type="line"/>
      <point x="465" y="265" type="line"/>
    </contour>
    <contour>
      <point x="495" y="265" type="line"/>
      <point x="495" y="280" type="line"/>
      <point x="480" y="280" type="line"/>
      <point x="480" y="265" type="line"/>
    </contour>
    <contour>
      <point x="510" y="265" type="line"/>
      <point x="510" y="280" type="line"/>
      <point x="495" y="280" type="line"/>
      <point x="495" y="265" type="line"/>
    </contour>
    <contour>
      <point x="525" y="265" type="line"/>
      <point x="525" y="280" type="line"/>
      <point x="510" y="280" type="line"/>
      <point x="510" y="265" type="line"/>
    </contour>
    <contour>
      <point x="540" y="265" type="line"/>
      <point x="540" y="280" type="line"/>
      <point x="525" y="280" type="line"/>
      <point x="525" y="265" type="line"/>
    </contour>
    <contour>
      <point x="555" y="265" type="line"/>
      <point x="555" y="280" type="line"/>
      <point x="540" y="280" type="line"/>
      <point x="540" y="265" type="line"/>
    </contour>
    <contour>
      <point x="570" y="265" type="line"/>
      <point x="570" y="280" type="line"/>
      <point x="555" y="280" type="line"/>
      <point x="555" y="265" type="line"/>
    </contour>
    <contour>
      <point x="585" y="265" type="line"/>
      <point x="585" y="280" type="line"/>
      <point x="570" y="280" type="line"/>
      <point x="570" y="265" type="line"/>
    </contour>
    <contour>
      <point x="600" y="265" type="line"/>
      <point x="600" y="280" type="line"/>
      <point x="585" y="280" type="line"/>
      <point x="585" y="265" type="line"/>
    </contour>
    <contour>
      <point x="615" y="265" type="line"/>
      <point x="615" y="280" type="line"/>
      <point x="600" y="280" type="line"/>
      <point x="600" y="265" type="line"/>
    </contour>
    <contour>
      <point x="630" y="265" type="line"/>
      <point x="630" y="280" type="line"/>
      <point x="615" y="280" type="line"/>
      <point x="615" y="265" type="line"/>
    </contour>
    <contour>
      <point x="645" y="265" type="line"/>
      <point x="645" y="280" type="line"/>
      <point x="630" y="280" type="line"/>
      <point x="630" y="265" type="line"/>
    </contour>
    <contour>
      <point x="660" y="265" type="line"/>
      <point x="660" y="280" type="line"/>
      <point x="645" y="280" type="line"/>
      <point x="645" y="265" type="line"/>
    </contour>
    <contour>
      <point x="675" y="265" type="line"/>
      <point x="675" y="280" type="line"/>
      <point x="660" y="280" type="line"/>
      <point x="660" y="265" type="line"/>
    </contour>
    <contour>
      <point x="690" y="265" type="line"/>
      <point x="690" y="280" type="line"/>
      <point x="675" y="280" type="line"/>
      <point x="675" y="265" type="line"/>
    </contour>
    <contour>
      <point x="705" y="265" type="line"/>
      <point x="705" y="280" type="line"/>
      <point x="690" y="280" type="line"/>
      <point x="690" y="265" type="line"/>
    </contour>
    <contour>
      <point x="720" y="265" type="line"/>
      <point x="720" y="280" type="line"/>
      <point x="705" y="280" type="line"/>
      <point x="705" y="265" type="line"/>
    </contour>
    <contour>
      <point x="735" y="265" type="line"/>
      <point x="735" y="280" type="line"/>
      <point x="720" y="280" type="line"/>
      <point x="720" y="265" type="line"/>
    </contour>
    <contour>
      <point x="750" y="265" type="line"/>
      <point x="750" y="280" type="line"/>
      <point x="735" y="280" type="line"/>
      <point x="735" y="265" type="line"/>
    </contour>
    <contour>
      <point x="765" y="265" type="line"/>
      <point x="765" y="280" type="line"/>
      <point x="750" y="280" type="line"/>
      <point x="750" y="265" type="line"/>
    </contour>
    <contour>
      <point x="780" y="265" type="line"/>
      <point x="780" y="280" type="line"/>
      <point x="765" y="280" type="line"/>
      <point x="765" y="265" type="line"/>
    </contour>
    <contour>
      <point x="795" y="265" type="line"/>
      <point x="795" y="280" type="line"/>
      <point x="780" y="280" type="line"/>
      <point x="780" y="265" type="line"/>
    </contour>
    <contour>
      <point x="810" y="265" type="line"/>
      <point x="810" y="280" type="line"/>
      <point x="795" y="280" type="line"/>
      <point x="795" y="265" type="line"/>
    </contour>
    <contour>
      <point x="825" y="265" type="line"/>
      <point x="825" y="280" type="line"/>
      <point x="810" y="280" type="line"/>
      <point x="810" y="265" type="line"/>
    </contour>
    <contour>
      <point x="840" y="265" type="line"/>
      <point x="840" y="280" type="line"/>
      <point x="825" y="280" type="line"/>
      <point x="825" y="265" type="line"/>
    </contour>
    <contour>
      <point x="855" y="265" type="line"/>
      <point x="855" y="280" type="line"/>
      <point x="840" y="280" type="line"/>
      <point x="840" y="265" type="line"/>
    </contour>
    <contour>
      <point x="870" y="265" type="line"/>
      <point x="870" y="280" type="line"/>
      <point x="855" y="280" type="line"/>
      <point x="855" y="265" type="line"/>
    </contour>
    <contour>
      <point x="885" y="265" type="line"/>
      <point x="885" y="280" type="line"/>
      <point x="870" y="280" type="line"/>
      <point x="870" y="265" type="line"/>
    </contour>
    <contour>
      <point x="900" y="265" type="line"/>
      <point x="900" y="280" type="line"/>
      <point x="885" y="280" type="line"/>
      <point x="885" y="265" type="line"/>
    </contour>
    <contour>
      <point x="915" y="265" type="line"/>
      <point x="915" y="280" type="line"/>
      <point x="900" y="280" type="line"/>
      <point x="900" y="265" type="line"/>
    </contour>
    <contour>
      <point x="930" y="265" type="line"/>
      <point x="930" y="280" type="line"/>
      <point x="915" y="280" type="line"/>
      <point x="915" y="265" type="line"/>
    </contour>
    <contour>
      <point x="15" y="250" type="line"/>
      <point x="15" y="265" type="line"/>
      <point x="0" y="265" type="line"/>
      <point x="0" y="250" type="line"/>
    </contour>
    <contour>
      <point x="30" y="250" type="line"/>
      <point x="30" y="265" type="line"/>
      <point x="15" y="265" type="line"/>
      <point x="15" y="250" type="line"/>
    </contour>
    <contour>
      <point x="45" y="250" type="line"/>
      <point x="45" y="265" type="line"/>
      <point x="30" y="265" type="line"/>
      <point x="30" y="250" type="line"/>
    </contour>
    <contour>
      <point x="60" y="250" type="line"/>
      <point x="60" y="265" type="line"/>
      <point x="45" y="265" type="line"/>
      <point x="45" y="250" type="line"/>
    </contour>
    <contour>
      <point x="75" y="250" type="line"/>
      <point x="75" y="265" type="line"/>
      <point x="60" y="265" type="line"/>
      <point x="60" y="250" type="line"/>
    </contour>
    <contour>
      <point x="90" y="250" type="line"/>
      <point x="90" y="265" type="line"/>
      <point x="75" y="265" type="line"/>
      <point x="75" y="250" type="line"/>
    </contour>
    <contour>
      <point x="105" y="250" type="line"/>
      <point x="105" y="265" type="line"/>
      <point x="90" y="265" type="line"/>
      <point x="90" y="250" type="line"/>
    </contour>
    <contour>
      <point x="120" y="250" type="line"/>
      <point x="120" y="265" type="line"/>
      <point x="105" y="265" type="line"/>
      <point x="105" y="250" type="line"/>
    </contour>
    <contour>
      <point x="135" y="250" type="line"/>
      <point x="135" y="265" type="line"/>
      <point x="120" y="265" type="line"/>
      <point x="120" y="250" type="line"/>
    </contour>
    <contour>
      <point x="150" y="250" type="line"/>
      <point x="150" y="265" type="line"/>
      <point x="135" y="265" type="line"/>
      <point x="135" y="250" type="line"/>
    </contour>
    <contour>
      <point x="165" y="250" type="line"/>
      <point x="165" y="265" type="line"/>
      <point x="150" y="265" type="line"/>
      <point x="150" y="250" type="line"/>
    </contour>
    <contour>
      <point x="180" y="250" type="line"/>
      <point x="180" y="265" type="line"/>
      <point x="165" y="265" type="line"/>
      <point x="165" y="250" type="line"/>
    </contour>
    <contour>
      <point x="195" y="250" type="line"/>
      <point x="195" y="265" type="line"/>
      <point x="180" y="265" type="line"/>
      <point x="180" y="250" type="line"/>
    </contour>
    <contour>
      <point x="210" y="250" type="line"/>
      <point x="210" y="265" type="line"/>
      <point x="195" y="265" type="line"/>
      <point x="195" y="250" type="line"/>
    </contour>
    <contour>
      <point x="225" y="250" type="line"/>
      <point x="225" y="265" type="line"/>
      <point x="210" y="265" type="line"/>
      <point x="210" y="250" type="line"/>
    </contour>
    <contour>
      <point x="240" y="250" type="line"/>
      <point x="240" y="265" type="line"/>
      <point x="225" y="265" type="line"/>
      <point x="225" y="250" type="line"/>
    </contour>
    <contour>
      <point x="255" y="250" type="line"/>
      <point x="255" y="265" type="line"/>
      <point x="240" y="265" type="line"/>
      <point x="240" y="250" type="line"/>
    </contour>
    <contour>
      <point x="270" y="250" type="line"/>
      <point x="270" y="265" type="line"/>
      <point x="255" y="265" type="line"/>
      <point x="255" y="250" type="line"/>
    </contour>
    <contour>
      <point x="285" y="250" type="line"/>
      <point x="285" y="265" type="line"/>
      <point x="270" y="265" type="line"/>
      <point x="270" y="250" type="line"/>
    </contour>
    <contour>
      <point x="300" y="250" type="line"/>
      <point x="300" y="265" type="line"/>
      <point x="285" y="265" type="line"/>
      <point x="285" y="250" type="line"/>
    </contour>
    <contour>
      <point x="315" y="250" type="line"/>
      <point x="315" y="265" type="line"/>
      <point x="300" y="265" type="line"/>
      <point x="300" y="250" type="line"/>
    </contour>
    <contour>
      <point x="330" y="250" type="line"/>
      <point x="330" y="265" type="line"/>
      <point x="315" y="265" type="line"/>
      <point x="315" y="250" type="line"/>
    </contour>
    <contour>
      <point x="345" y="250" type="line"/>
      <point x="345" y="265" type="line"/>
      <point x="330" y="265" type="line"/>
      <point x="330" y="250" type="line"/>
    </contour>
    <contour>
      <point x="360" y="250" type="line"/>
      <point x="360" y="265" type="line"/>
      <point x="345" y="265" type="line"/>
      <point x="345" y="250" type="line"/>
    </contour>
    <contour>
      <point x="375" y="250" type="line"/>
      <point x="375" y="265" type="line"/>
      <point x="360" y="265" type="line"/>
      <point x="360" y="250" type="line"/>
    </contour>
    <contour>
      <point x="390" y="250" type="line"/>
      <point x="390" y="265" type="line"/>
      <point x="375" y="265" type="line"/>
      <point x="375" y="250" type="line"/>
    </contour>
    <contour>
      <point x="405" y="250" type="line"/>
      <point x="405" y="265" type="line"/>
      <point x="390" y="265" type="line"/>
      <point x="390" y="250" type="line"/>
    </contour>
    <contour>
      <point x="420" y="250" type="line"/>
      <point x="420" y="265" type="line"/>
      <point x="405" y="265" type="line"/>
      <point x="405" y="250" type="line"/>
    </contour>
    <contour>
      <point x="435" y="250" type="line"/>
      <point x="435" y="265" type="line"/>
      <point x="420" y="265" type="line"/>
      <point x="420" y="250" type="line"/>
    </contour>
    <contour>
      <point x="450" y="250" type="line"/>
      <point x="450" y="265" type="line"/>
      <point x="435" y="265" type="line"/>
      <point x="435" y="250" type="line"/>
    </contour>
    <contour>
      <point x="465" y="250" type="line"/>
      <point x="465" y="265" type="line"/>
      <point x="450" y="265" type="line"/>
      <point x="450" y="250" type="line"/>
    </contour>
    <contour>
      <point x="480" y="250" type="line"/>
      <point x="480" y="265" type="line"/>
      <point x="465" y="265" type="line"/>
      <point x="465" y="250" type="line"/>
    </contour>
    <contour>
      <point x="495" y="250" type="line"/>
      <point x="495" y="265" type="line"/>
      <point x="480" y="265" type="line"/>
      <point x="480" y="250" type="line"/>
    </contour>
    <contour>
      <point x="510" y="250" type="line"/>
      <point x="510" y="265" type="line"/>
      <point x="495" y="265" type="line"/>
      <point x="495" y="250" type="line"/>
    </contour>
    <contour>
      <point x="525" y="250" type="line"/>
      <point x="525" y="265" type="line"/>
      <point x="510" y="265" type="line"/>
      <point x="510" y="250" type="line"/>
    </contour>
    <contour>
      <point x="540" y="250" type="line"/>
      <point x="540" y="265" type="line"/>
      <point x="525" y="265" type="line"/>
      <point x="525" y="250" type="line"/>
    </contour>
    <contour>
      <point x="555" y="250" type="line"/>
      <point x="555" y="265" type="line"/>
      <point x="540" y="265" type="line"/>
      <point x="540" y="250" type="line"/>
    </contour>
    <contour>
      <point x="570" y="250" type="line"/>
      <point x="570" y="265" type="line"/>
      <point x="555" y="265" type="line"/>
      <point x="555" y="250" type="line"/>
    </contour>
    <contour>
      <point x="585" y="250" type="line"/>
      <point x="585" y="265" type="line"/>
      <point x="570" y="265" type="line"/>
      <point x="570" y="250" type="line"/>
    </contour>
    <contour>
      <point x="600" y="250" type="line"/>
      <point x="600" y="265" type="line"/>
      <point x="585" y="265" type="line"/>
      <point x="585" y="250" type="line"/>
    </contour>
    <contour>
      <point x="615" y="250" type="line"/>
      <point x="615" y="265" type="line"/>
      <point x="600" y="265" type="line"/>
      <point x="600" y="250" type="line"/>
    </contour>
    <contour>
      <point x="630" y="250" type="line"/>
      <point x="630" y="265" type="line"/>
      <point x="615" y="265" type="line"/>
      <point x="615" y="250" type="line"/>
    </contour>
    <contour>
      <point x="645" y="250" type="line"/>
      <point x="645" y="265" type="line"/>
      <point x="630" y="265" type="line"/>
      <point x="630" y="250" type="line"/>
    </contour>
    <contour>
      <point x="660" y="250" type="line"/>
      <point x="660" y="265" type="line"/>
      <point x="645" y="265" type="line"/>
      <point x="645" y="250" type="line"/>
    </contour>
    <contour>
      <point x="675" y="250" type="line"/>
      <point x="675" y="265" type="line"/>
      <point x="660" y="265" type="line"/>
      <point x="660" y="250" type="line"/>
    </contour>
    <contour>
      <point x="690" y="250" type="line"/>
      <point x="690" y="265" type="line"/>
      <point x="675" y="265" type="line"/>
      <point x="675" y="250" type="line"/>
    </contour>
    <contour>
      <point x="705" y="250" type="line"/>
      <point x="705" y="265" type="line"/>
      <point x="690" y="265" type="line"/>
      <point x="690" y="250" type="line"/>
    </contour>
    <contour>
      <point x="720" y="250" type="line"/>
      <point x="720" y="265" type="line"/>
      <point x="705" y="265" type="line"/>
      <point x="705" y="250" type="line"/>
    </contour>
    <contour>
      <point x="735" y="250" type="line"/>
      <point x="735" y="265" type="line"/>
      <point x="720" y="265" type="line"/>
      <point x="720" y="250" type="line"/>
    </contour>
    <contour>
      <point x="750" y="250" type="line"/>
      <point x="750" y="265" type="line"/>
      <point x="735" y="265" type="line"/>
      <point x="735" y="250" type="line"/>
    </contour>
    <contour>
      <point x="765" y="250" type="line"/>
      <point x="765" y="265" type="line"/>
      <point x="750" y="265" type="line"/>
      <point x="750" y="250" type="line"/>
    </contour>
    <contour>
      <point x="780" y="250" type="line"/>
      <point x="780" y="265" type="line"/>
      <point x="765" y="265" type="line"/>
      <point x="765" y="250" type="line"/>
    </contour>
    <contour>
      <point x="795" y="250" type="line"/>
      <point x="795" y="265" type="line"/>
      <point x="780" y="265" type="line"/>
      <point x="780" y="250" type="line"/>
    </contour>
    <contour>
      <point x="810" y="250" type="line"/>
      <point x="810" y="265" type="line"/>
      <point x="795" y="265" type="line"/>
      <point x="795" y="250" type="line"/>
    </contour>
    <contour>
      <point x="825" y="250" type="line"/>
      <point x="825" y="265" type="line"/>
      <point x="810" y="265" type="line"/>
      <point x="810" y="250" type="line"/>
    </contour>
    <contour>
      <point x="840" y="250" type="line"/>
      <point x="840" y="265" type="line"/>
      <point x="825" y="265" type="line"/>
      <point x="825" y="250" type="line"/>
    </contour>
    <contour>
      <point x="855" y="250" type="line"/>
      <point x="855" y="265" type="line"/>
      <point x="840" y="265" type="line"/>
      <point x="840" y="250" type="line"/>
    </contour>
    <contour>
      <point x="870" y="250" type="line"/>
      <point x="870" y="265" type="line"/>
      <point x="855" y="265" type="line"/>
      <point x="855" y="250" type="line"/>
    </contour>
    <contour>
      <point x="885" y="250" type="line"/>
      <point x="885" y="265" type="line"/>
      <point x="870" y="265" type="line"/>
      <point x="870" y="250" type="line"/>
    </contour>
    <contour>
      <point x="900" y="250" type="line"/>
      <point x="900" y="265" type="line"/>
      <point x="885" y="265" type="line"/>
      <point x="885" y="250" type="line"/>
    </contour>
    <contour>
      <point x="915" y="250" type="line"/>
      <point x="915" y="265" type="line"/>
      <point x="900" y="265" type="line"/>
      <point x="900" y="250" type="line"/>
    </contour>
    <contour>
      <point x="930" y="250" type="line"/>
      <point x="930" y="265" type="line"/>
      <point x="915" y="265" type="line"/>
      <point x="915" y="250" type="line"/>
    </contour>
    <contour>
      <point x="15" y="235" type="line"/>
      <point x="15" y="250" type="line"/>
      <point x="0" y="250" type="line"/>
      <point x="0" y="235" type="line"/>
    </contour>
    <contour>
      <point x="30" y="235" type="line"/>
      <point x="30" y="250" type="line"/>
      <point x="15" y="250" type="line"/>
      <point x="15" y="235" type="line"/>
    </contour>
    <contour>
      <point x="45" y="235" type="line"/>
      <point x="45" y="250" type="line"/>
      <point x="30" y="250" type="line"/>
      <point x="30" y="235" type="line"/>
    </contour>
    <contour>
      <point x="60" y="235" type="line"/>
      <point x="60" y="250" type="line"/>
      <point x="45" y="250" type="line"/>
      <point x="45" y="235" type="line"/>
    </contour>
    <contour>
      <point x="75" y="235" type="line"/>
      <point x="75" y="250" type="line"/>
      <point x="60" y="250" type="line"/>
      <point x="60" y="235" type="line"/>
    </contour>
    <contour>
      <point x="90" y="235" type="line"/>
      <point x="90" y="250" type="line"/>
      <point x="75" y="250" type="line"/>
      <point x="75" y="235" type="line"/>
    </contour>
    <contour>
      <point x="105" y="235" type="line"/>
      <point x="105" y="250" type="line"/>
      <point x="90" y="250" type="line"/>
      <point x="90" y="235" type="line"/>
    </contour>
    <contour>
      <point x="120" y="235" type="line"/>
      <point x="120" y="250" type="line"/>
      <point x="105" y="250" type="line"/>
      <point x="105" y="235" type="line"/>
    </contour>
    <contour>
      <point x="135" y="235" type="line"/>
      <point x="135" y="250" type="line"/>
      <point x="120" y="250" type="line"/>
      <point x="120" y="235" type="line"/>
    </contour>
    <contour>
      <point x="150" y="235" type="line"/>
      <point x="150" y="250" type="line"/>
      <point x="135" y="250" type="line"/>
      <point x="135" y="235" type="line"/>
    </contour>
    <contour>
      <point x="165" y="235" type="line"/>
      <point x="165" y="250" type="line"/>
      <point x="150" y="250" type="line"/>
      <point x="150" y="235" type="line"/>
    </contour>
    <contour>
      <point x="180" y="235" type="line"/>
      <point x="180" y="250" type="line"/>
      <point x="165" y="250" type="line"/>
      <point x="165" y="235" type="line"/>
    </contour>
    <contour>
      <point x="195" y="235" type="line"/>
      <point x="195" y="250" type="line"/>
      <point x="180" y="250" type="line"/>
      <point x="180" y="235" type="line"/>
    </contour>
    <contour>
      <point x="210" y="235" type="line"/>
      <point x="210" y="250" type="line"/>
      <point x="195" y="250" type="line"/>
      <point x="195" y="235" type="line"/>
    </contour>
    <contour>
      <point x="225" y="235" type="line"/>
      <point x="225" y="250" type="line"/>
      <point x="210" y="250" type="line"/>
      <point x="210" y="235" type="line"/>
    </contour>
    <contour>
      <point x="240" y="235" type="line"/>
      <point x="240" y="250" type="line"/>
      <point x="225" y="250" type="line"/>
      <point x="225" y="235" type="line"/>
    </contour>
    <contour>
      <point x="255" y="235" type="line"/>
      <point x="255" y="250" type="line"/>
      <point x="240" y="250" type="line"/>
      <point x="240" y="235" type="line"/>
    </contour>
    <contour>
      <point x="270" y="235" type="line"/>
      <point x="270" y="250" type="line"/>
      <point x="255" y="250" type="line"/>
      <point x="255" y="235" type="line"/>
    </contour>
    <contour>
      <point x="285" y="235" type="line"/>
      <point x="285" y="250" type="line"/>
      <point x="270" y="250" type="line"/>
      <point x="270" y="235" type="line"/>
    </contour>
    <contour>
      <point x="300" y="235" type="line"/>
      <point x="300" y="250" type="line"/>
      <point x="285" y="250" type="line"/>
      <point x="285" y="235" type="line"/>
    </contour>
    <contour>
      <point x="315" y="235" type="line"/>
      <point x="315" y="250" type="line"/>
      <point x="300" y="250" type="line"/>
      <point x="300" y="235" type="line"/>
    </contour>
    <contour>
      <point x="330" y="235" type="line"/>
      <point x="330" y="250" type="line"/>
      <point x="315" y="250" type="line"/>
      <point x="315" y="235" type="line"/>
    </contour>
    <contour>
      <point x="345" y="235" type="line"/>
      <point x="345" y="250" type="line"/>
      <point x="330" y="250" type="line"/>
      <point x="330" y="235" type="line"/>
    </contour>
    <contour>
      <point x="360" y="235" type="line"/>
      <point x="360" y="250" type="line"/>
      <point x="345" y="250" type="line"/>
      <point x="345" y="235" type="line"/>
    </contour>
    <contour>
      <point x="375" y="235" type="line"/>
      <point x="375" y="250" type="line"/>
      <point x="360" y="250" type="line"/>
      <point x="360" y="235" type="line"/>
    </contour>
    <contour>
      <point x="390" y="235" type="line"/>
      <point x="390" y="250" type="line"/>
      <point x="375" y="250" type="line"/>
      <point x="375" y="235" type="line"/>
    </contour>
    <contour>
      <point x="405" y="235" type="line"/>
      <point x="405" y="250" type="line"/>
      <point x="390" y="250" type="line"/>
      <point x="390" y="235" type="line"/>
    </contour>
    <contour>
      <point x="420" y="235" type="line"/>
      <point x="420" y="250" type="line"/>
      <point x="405" y="250" type="line"/>
      <point x="405" y="235" type="line"/>
    </contour>
    <contour>
      <point x="435" y="235" type="line"/>
      <point x="435" y="250" type="line"/>
      <point x="420" y="250" type="line"/>
      <point x="420" y="235" type="line"/>
    </contour>
    <contour>
      <point x="450" y="235" type="line"/>
      <point x="450" y="250" type="line"/>
      <point x="435" y="250" type="line"/>
      <point x="435" y="235" type="line"/>
    </contour>
    <contour>
      <point x="465" y="235" type="line"/>
      <point x="465" y="250" type="line"/>
      <point x="450" y="250" type="line"/>
      <point x="450" y="235" type="line"/>
    </contour>
    <contour>
      <point x="480" y="235" type="line"/>
      <point x="480" y="250" type="line"/>
      <point x="465" y="250" type="line"/>
      <point x="465" y="235" type="line"/>
    </contour>
    <contour>
      <point x="495" y="235" type="line"/>
      <point x="495" y="250" type="line"/>
      <point x="480" y="250" type="line"/>
      <point x="480" y="235" type="line"/>
    </contour>
    <contour>
      <point x="510" y="235" type="line"/>
      <point x="510" y="250" type="line"/>
      <point x="495" y="250" type="line"/>
      <point x="495" y="235" type="line"/>
    </contour>
    <contour>
      <point x="525" y="235" type="line"/>
      <point x="525" y="250" type="line"/>
      <point x="510" y="250" type="line"/>
      <point x="510" y="235" type="line"/>
    </contour>
    <contour>
      <point x="540" y="235" type="line"/>
      <point x="540" y="250" type="line"/>
      <point x="525" y="250" type="line"/>
      <point x="525" y="235" type="line"/>
    </contour>
    <contour>
      <point x="555" y="235" type="line"/>
      <point x="555" y="250" type="line"/>
      <point x="540" y="250" type="line"/>
      <point x="540" y="235" type="line"/>
    </contour>
    <contour>
      <point x="570" y="235" type="line"/>
      <point x="570" y="250" type="line"/>
      <point x="555" y="250" type="line"/>
      <point x="555" y="235" type="line"/>
    </contour>
    <contour>
      <point x="585" y="235" type="line"/>
      <point x="585" y="250" type="line"/>
      <point x="570" y="250" type="line"/>
      <point x="570" y="235" type="line"/>
    </contour>
    <contour>
      <point x="600" y="235" type="line"/>
      <point x="600" y="250" type="line"/>
      <point x="585" y="250" type="line"/>
      <point x="585" y="235" type="line"/>
    </contour>
    <contour>
      <point x="615" y="235" type="line"/>
      <point x="615" y="250" type="line"/>
      <point x="600" y="250" type="line"/>
      <point x="600" y="235" type="line"/>
    </contour>
    <contour>
      <point x="630" y="235" type="line"/>
      <point x="630" y="250" type="line"/>
      <point x="615" y="250" type="line"/>
      <point x="615" y="235" type="line"/>
    </contour>
    <contour>
      <point x="645" y="235" type="line"/>
      <point x="645" y="250" type="line"/>
      <point x="630" y="250" type="line"/>
      <point x="630" y="235" type="line"/>
    </contour>
    <contour>
      <point x="660" y="235" type="line"/>
      <point x="660" y="250" type="line"/>
      <point x="645" y="250" type="line"/>
      <point x="645" y="235" type="line"/>
    </contour>
    <contour>
      <point x="675" y="235" type="line"/>
      <point x="675" y="250" type="line"/>
      <point x="660" y="250" type="line"/>
      <point x="660" y="235" type="line"/>
    </contour>
    <contour>
      <point x="690" y="235" type="line"/>
      <point x="690" y="250" type="line"/>
      <point x="675" y="250" type="line"/>
      <point x="675" y="235" type="line"/>
    </contour>
    <contour>
      <point x="705" y="235" type="line"/>
      <point x="705" y="250" type="line"/>
      <point x="690" y="250" type="line"/>
      <point x="690" y="235" type="line"/>
    </contour>
    <contour>
      <point x="720" y="235" type="line"/>
      <point x="720" y="250" type="line"/>
      <point x="705" y="250" type="line"/>
      <point x="705" y="235" type="line"/>
    </contour>
    <contour>
      <point x="735" y="235" type="line"/>
      <point x="735" y="250" type="line"/>
      <point x="720" y="250" type="line"/>
      <point x="720" y="235" type="line"/>
    </contour>
    <contour>
      <point x="750" y="235" type="line"/>
      <point x="750" y="250" type="line"/>
      <point x="735" y="250" type="line"/>
      <point x="735" y="235" type="line"/>
    </contour>
    <contour>
      <point x="765" y="235" type="line"/>
      <point x="765" y="250" type="line"/>
      <point x="750" y="250" type="line"/>
      <point x="750" y="235" type="line"/>
    </contour>
    <contour>
      <point x="780" y="235" type="line"/>
      <point x="780" y="250" type="line"/>
      <point x="765" y="250" type="line"/>
      <point x="765" y="235" type="line"/>
    </contour>
    <contour>
      <point x="795" y="235" type="line"/>
      <point x="795" y="250" type="line"/>
      <point x="780" y="250" type="line"/>
      <point x="780" y="235" type="line"/>
    </contour>
    <contour>
      <point x="810" y="235" type="line"/>
      <point x="810" y="250" type="line"/>
      <point x="795" y="250" type="line"/>
      <point x="795" y="235" type="line"/>
    </contour>
    <contour>
      <point x="825" y="235" type="line"/>
      <point x="825" y="250" type="line"/>
      <point x="810" y="250" type="line"/>
      <point x="810" y="235" type="line"/>
    </contour>
    <contour>
      <point x="840" y="235" type="line"/>
      <point x="840" y="250" type="line"/>
      <point x="825" y="250" type="line"/>
      <point x="825" y="235" type="line"/>
    </contour>
    <contour>
      <point x="855" y="235" type="line"/>
      <point x="855" y="250" type="line"/>
      <point x="840" y="250" type="line"/>
      <point x="840" y="235" type="line"/>
    </contour>
    <contour>
      <point x="870" y="235" type="line"/>
      <point x="870" y="250" type="line"/>
      <point x="855" y="250" type="line"/>
      <point x="855" y="235" type="line"/>
    </contour>
    <contour>
      <point x="885" y="235" type="line"/>
      <point x="885" y="250" type="line"/>
      <point x="870" y="250" type="line"/>
      <point x="870" y="235" type="line"/>
    </contour>
    <contour>
      <point x="900" y="235" type="line"/>
      <point x="900" y="250" type="line"/>
      <point x="885" y="250" type="line"/>
      <point x="885" y="235" type="line"/>
    </contour>
    <contour>
      <point x="915" y="235" type="line"/>
      <point x="915" y="250" type="line"/>
      <point x="900" y="250" type="line"/>
      <point x="900" y="235" type="line"/>
    </contour>
    <contour>
      <point x="930" y="235" type="line"/>
      <point x="930" y="250" type="line"/>
      <point x="915" y="250" type="line"/>
      <point x="915" y="235" type="line"/>
    </contour>
    <contour>
      <point x="75" y="220" type="line"/>
      <point x="75" y="235" type="line"/>
      <point x="60" y="235" type="line"/>
      <point x="60" y="220" type="line"/>
    </contour>
    <contour>
      <point x="90" y="220" type="line"/>
      <point x="90" y="235" type="line"/>
      <point x="75" y="235" type="line"/>
      <point x="75" y="220" type="line"/>
    </contour>
    <contour>
      <point x="105" y="220" type="line"/>
      <point x="105" y="235" type="line"/>
      <point x="90" y="235" type="line"/>
      <point x="90" y="220" type="line"/>
    </contour>
    <contour>
      <point x="120" y="220" type="line"/>
      <point x="120" y="235" type="line"/>
      <point x="105" y="235" type="line"/>
      <point x="105" y="220" type="line"/>
    </contour>
    <contour>
      <point x="135" y="220" type="line"/>
      <point x="135" y="235" type="line"/>
      <point x="120" y="235" type="line"/>
      <point x="120" y="220" type="line"/>
    </contour>
    <contour>
      <point x="150" y="220" type="line"/>
      <point x="150" y="235" type="line"/>
      <point x="135" y="235" type="line"/>
      <point x="135" y="220" type="line"/>
    </contour>
    <contour>
      <point x="165" y="220" type="line"/>
      <point x="165" y="235" type="line"/>
      <point x="150" y="235" type="line"/>
      <point x="150" y="220" type="line"/>
    </contour>
    <contour>
      <point x="180" y="220" type="line"/>
      <point x="180" y="235" type="line"/>
      <point x="165" y="235" type="line"/>
      <point x="165" y="220" type="line"/>
    </contour>
    <contour>
      <point x="195" y="220" type="line"/>
      <point x="195" y="235" type="line"/>
      <point x="180" y="235" type="line"/>
      <point x="180" y="220" type="line"/>
    </contour>
    <contour>
      <point x="210" y="220" type="line"/>
      <point x="210" y="235" type="line"/>
      <point x="195" y="235" type="line"/>
      <point x="195" y="220" type="line"/>
    </contour>
    <contour>
      <point x="225" y="220" type="line"/>
      <point x="225" y="235" type="line"/>
      <point x="210" y="235" type="line"/>
      <point x="210" y="220" type="line"/>
    </contour>
    <contour>
      <point x="240" y="220" type="line"/>
      <point x="240" y="235" type="line"/>
      <point x="225" y="235" type="line"/>
      <point x="225" y="220" type="line"/>
    </contour>
    <contour>
      <point x="255" y="220" type="line"/>
      <point x="255" y="235" type="line"/>
      <point x="240" y="235" type="line"/>
      <point x="240" y="220" type="line"/>
    </contour>
    <contour>
      <point x="270" y="220" type="line"/>
      <point x="270" y="235" type="line"/>
      <point x="255" y="235" type="line"/>
      <point x="255" y="220" type="line"/>
    </contour>
    <contour>
      <point x="285" y="220" type="line"/>
      <point x="285" y="235" type="line"/>
      <point x="270" y="235" type="line"/>
      <point x="270" y="220" type="line"/>
    </contour>
    <contour>
      <point x="300" y="220" type="line"/>
      <point x="300" y="235" type="line"/>
      <point x="285" y="235" type="line"/>
      <point x="285" y="220" type="line"/>
    </contour>
    <contour>
      <point x="315" y="220" type="line"/>
      <point x="315" y="235" type="line"/>
      <point x="300" y="235" type="line"/>
      <point x="300" y="220" type="line"/>
    </contour>
    <contour>
      <point x="330" y="220" type="line"/>
      <point x="330" y="235" type="line"/>
      <point x="315" y="235" type="line"/>
      <point x="315" y="220" type="line"/>
    </contour>
    <contour>
      <point x="345" y="220" type="line"/>
      <point x="345" y="235" type="line"/>
      <point x="330" y="235" type="line"/>
      <point x="330" y="220" type="line"/>
    </contour>
    <contour>
      <point x="360" y="220" type="line"/>
      <point x="360" y="235" type="line"/>
      <point x="345" y="235" type="line"/>
      <point x="345" y="220" type="line"/>
    </contour>
    <contour>
      <point x="375" y="220" type="line"/>
      <point x="375" y="235" type="line"/>
      <point x="360" y="235" type="line"/>
      <point x="360" y="220" type="line"/>
    </contour>
    <contour>
      <point x="390" y="220" type="line"/>
      <point x="390" y="235" type="line"/>
      <point x="375" y="235" type="line"/>
      <point x="375" y="220" type="line"/>
    </contour>
    <contour>
      <point x="405" y="220" type="line"/>
      <point x="405" y="235" type="line"/>
      <point x="390" y="235" type="line"/>
      <point x="390" y="220" type="line"/>
    </contour>
    <contour>
      <point x="420" y="220" type="line"/>
      <point x="420" y="235" type="line"/>
      <point x="405" y="235" type="line"/>
      <point x="405" y="220" type="line"/>
    </contour>
    <contour>
      <point x="435" y="220" type="line"/>
      <point x="435" y="235" type="line"/>
      <point x="420" y="235" type="line"/>
      <point x="420" y="220" type="line"/>
    </contour>
    <contour>
      <point x="450" y="220" type="line"/>
      <point x="450" y="235" type="line"/>
      <point x="435" y="235" type="line"/>
      <point x="435" y="220" type="line"/>
    </contour>
    <contour>
      <point x="465" y="220" type="line"/>
      <point x="465" y="235" type="line"/>
      <point x="450" y="235" type="line"/>
      <point x="450" y="220" type="line"/>
    </contour>
    <contour>
      <point x="480" y="220" type="line"/>
      <point x="480" y="235" type="line"/>
      <point x="465" y="235" type="line"/>
      <point x="465" y="220" type="line"/>
    </contour>
    <contour>
      <point x="495" y="220" type="line"/>
      <point x="495" y="235" type="line"/>
      <point x="480" y="235" type="line"/>
      <point x="480" y="220" type="line"/>
    </contour>
    <contour>
      <point x="510" y="220" type="line"/>
      <point x="510" y="235" type="line"/>
      <point x="495" y="235" type="line"/>
      <point x="495" y="220" type="line"/>
    </contour>
    <contour>
      <point x="525" y="220" type="line"/>
      <point x="525" y="235" type="line"/>
      <point x="510" y="235" type="line"/>
      <point x="510" y="220" type="line"/>
    </contour>
    <contour>
      <point x="540" y="220" type="line"/>
      <point x="540" y="235" type="line"/>
      <point x="525" y="235" type="line"/>
      <point x="525" y="220" type="line"/>
    </contour>
    <contour>
      <point x="555" y="220" type="line"/>
      <point x="555" y="235" type="line"/>
      <point x="540" y="235" type="line"/>
      <point x="540" y="220" type="line"/>
    </contour>
    <contour>
      <point x="570" y="220" type="line"/>
      <point x="570" y="235" type="line"/>
      <point x="555" y="235" type="line"/>
      <point x="555" y="220" type="line"/>
    </contour>
    <contour>
      <point x="585" y="220" type="line"/>
      <point x="585" y="235" type="line"/>
      <point x="570" y="235" type="line"/>
      <point x="570" y="220" type="line"/>
    </contour>
    <contour>
      <point x="600" y="220" type="line"/>
      <point x="600" y="235" type="line"/>
      <point x="585" y="235" type="line"/>
      <point x="585" y="220" type="line"/>
    </contour>
    <contour>
      <point x="615" y="220" type="line"/>
      <point x="615" y="235" type="line"/>
      <point x="600" y="235" type="line"/>
      <point x="600" y="220" type="line"/>
    </contour>
    <contour>
      <point x="630" y="220" type="line"/>
      <point x="630" y="235" type="line"/>
      <point x="615" y="235" type="line"/>
      <point x="615" y="220" type="line"/>
    </contour>
    <contour>
      <point x="645" y="220" type="line"/>
      <point x="645" y="235" type="line"/>
      <point x="630" y="235" type="line"/>
      <point x="630" y="220" type="line"/>
    </contour>
    <contour>
      <point x="660" y="220" type="line"/>
      <point x="660" y="235" type="line"/>
      <point x="645" y="235" type="line"/>
      <point x="645" y="220" type="line"/>
    </contour>
    <contour>
      <point x="675" y="220" type="line"/>
      <point x="675" y="235" type="line"/>
      <point x="660" y="235" type="line"/>
      <point x="660" y="220" type="line"/>
    </contour>
    <contour>
      <point x="690" y="220" type="line"/>
      <point x="690" y="235" type="line"/>
      <point x="675" y="235" type="line"/>
      <point x="675" y="220" type="line"/>
    </contour>
    <contour>
      <point x="705" y="220" type="line"/>
      <point x="705" y="235" type="line"/>
      <point x="690" y="235" type="line"/>
      <point x="690" y="220" type="line"/>
    </contour>
    <contour>
      <point x="720" y="220" type="line"/>
      <point x="720" y="235" type="line"/>
      <point x="705" y="235" type="line"/>
      <point x="705" y="220" type="line"/>
    </contour>
    <contour>
      <point x="735" y="220" type="line"/>
      <point x="735" y="235" type="line"/>
      <point x="720" y="235" type="line"/>
      <point x="720" y="220" type="line"/>
    </contour>
    <contour>
      <point x="750" y="220" type="line"/>
      <point x="750" y="235" type="line"/>
      <point x="735" y="235" type="line"/>
      <point x="735" y="220" type="line"/>
    </contour>
    <contour>
      <point x="765" y="220" type="line"/>
      <point x="765" y="235" type="line"/>
      <point x="750" y="235" type="line"/>
      <point x="750" y="220" type="line"/>
    </contour>
    <contour>
      <point x="780" y="220" type="line"/>
      <point x="780" y="235" type="line"/>
      <point x="765" y="235" type="line"/>
      <point x="765" y="220" type="line"/>
    </contour>
    <contour>
      <point x="795" y="220" type="line"/>
      <point x="795" y="235" type="line"/>
      <point x="780" y="235" type="line"/>
      <point x="780" y="220" type="line"/>
    </contour>
    <contour>
      <point x="810" y="220" type="line"/>
      <point x="810" y="235" type="line"/>
      <point x="795" y="235" type="line"/>
      <point x="795" y="220" type="line"/>
    </contour>
    <contour>
      <point x="825" y="220" type="line"/>
      <point x="825" y="235" type="line"/>
      <point x="810" y="235" type="line"/>
      <point x="810" y="220" type="line"/>
    </contour>
    <contour>
      <point x="840" y="220" type="line"/>
      <point x="840" y="235" type="line"/>
      <point x="825" y="235" type="line"/>
      <point x="825" y="220" type="line"/>
    </contour>
    <contour>
      <point x="855" y="220" type="line"/>
      <point x="855" y="235" type="line"/>
      <point x="840" y="235" type="line"/>
      <point x="840" y="220" type="line"/>
    </contour>
    <contour>
      <point x="870" y="220" type="line"/>
      <point x="870" y="235" type="line"/>
      <point x="855" y="235" type="line"/>
      <point x="855" y="220" type="line"/>
    </contour>
    <contour>
      <point x="135" y="205" type="line"/>
      <point x="135" y="220" type="line"/>
      <point x="120" y="220" type="line"/>
      <point x="120" y="205" type="line"/>
    </contour>
    <contour>
      <point x="150" y="205" type="line"/>
      <point x="150" y="220" type="line"/>
      <point x="135" y="220" type="line"/>
      <point x="135" y="205" type="line"/>
    </contour>
    <contour>
      <point x="165" y="205" type="line"/>
      <point x="165" y="220" type="line"/>
      <point x="150" y="220" type="line"/>
      <point x="150" y="205" type="line"/>
    </contour>
    <contour>
      <point x="180" y="205" type="line"/>
      <point x="180" y="220" type="line"/>
      <point x="165" y="220" type="line"/>
      <point x="165" y="205" type="line"/>
    </contour>
    <contour>
      <point x="195" y="205" type="line"/>
      <point x="195" y="220" type="line"/>
      <point x="180" y="220" type="line"/>
      <point x="180" y="205" type="line"/>
    </contour>
    <contour>
      <point x="210" y="205" type="line"/>
      <point x="210" y="220" type="line"/>
      <point x="195" y="220" type="line"/>
      <point x="195" y="205" type="line"/>
    </contour>
    <contour>
      <point x="225" y="205" type="line"/>
      <point x="225" y="220" type="line"/>
      <point x="210" y="220" type="line"/>
      <point x="210" y="205" type="line"/>
    </contour>
    <contour>
      <point x="240" y="205" type="line"/>
      <point x="240" y="220" type="line"/>
      <point x="225" y="220" type="line"/>
      <point x="225" y="205" type="line"/>
    </contour>
    <contour>
      <point x="255" y="205" type="line"/>
      <point x="255" y="220" type="line"/>
      <point x="240" y="220" type="line"/>
      <point x="240" y="205" type="line"/>
    </contour>
    <contour>
      <point x="270" y="205" type="line"/>
      <point x="270" y="220" type="line"/>
      <point x="255" y="220" type="line"/>
      <point x="255" y="205" type="line"/>
    </contour>
    <contour>
      <point x="285" y="205" type="line"/>
      <point x="285" y="220" type="line"/>
      <point x="270" y="220" type="line"/>
      <point x="270" y="205" type="line"/>
    </contour>
    <contour>
      <point x="300" y="205" type="line"/>
      <point x="300" y="220" type="line"/>
      <point x="285" y="220" type="line"/>
      <point x="285" y="205" type="line"/>
    </contour>
    <contour>
      <point x="315" y="205" type="line"/>
      <point x="315" y="220" type="line"/>
      <point x="300" y="220" type="line"/>
      <point x="300" y="205" type="line"/>
    </contour>
    <contour>
      <point x="330" y="205" type="line"/>
      <point x="330" y="220" type="line"/>
      <point x="315" y="220" type="line"/>
      <point x="315" y="205" type="line"/>
    </contour>
    <contour>
      <point x="345" y="205" type="line"/>
      <point x="345" y="220" type="line"/>
      <point x="330" y="220" type="line"/>
      <point x="330" y="205" type="line"/>
    </contour>
    <contour>
      <point x="360" y="205" type="line"/>
      <point x="360" y="220" type="line"/>
      <point x="345" y="220" type="line"/>
      <point x="345" y="205" type="line"/>
    </contour>
    <contour>
      <point x="375" y="205" type="line"/>
      <point x="375" y="220" type="line"/>
      <point x="360" y="220" type="line"/>
      <point x="360" y="205" type="line"/>
    </contour>
    <contour>
      <point x="390" y="205" type="line"/>
      <point x="390" y="220" type="line"/>
      <point x="375" y="220" type="line"/>
      <point x="375" y="205" type="line"/>
    </contour>
    <contour>
      <point x="405" y="205" type="line"/>
      <point x="405" y="220" type="line"/>
      <point x="390" y="220" type="line"/>
      <point x="390" y="205" type="line"/>
    </contour>
    <contour>
      <point x="420" y="205" type="line"/>
      <point x="420" y="220" type="line"/>
      <point x="405" y="220" type="line"/>
      <point x="405" y="205" type="line"/>
    </contour>
    <contour>
      <point x="435" y="205" type="line"/>
      <point x="435" y="220" type="line"/>
      <point x="420" y="220" type="line"/>
      <point x="420" y="205" type="line"/>
    </contour>
    <contour>
      <point x="450" y="205" type="line"/>
      <point x="450" y="220" type="line"/>
      <point x="435" y="220" type="line"/>
      <point x="435" y="205" type="line"/>
    </contour>
    <contour>
      <point x="465" y="205" type="line"/>
      <point x="465" y="220" type="line"/>
      <point x="450" y="220" type="line"/>
      <point x="450" y="205" type="line"/>
    </contour>
    <contour>
      <point x="480" y="205" type="line"/>
      <point x="480" y="220" type="line"/>
      <point x="465" y="220" type="line"/>
      <point x="465" y="205" type="line"/>
    </contour>
    <contour>
      <point x="495" y="205" type="line"/>
      <point x="495" y="220" type="line"/>
      <point x="480" y="220" type="line"/>
      <point x="480" y="205" type="line"/>
    </contour>
    <contour>
      <point x="510" y="205" type="line"/>
      <point x="510" y="220" type="line"/>
      <point x="495" y="220" type="line"/>
      <point x="495" y="205" type="line"/>
    </contour>
    <contour>
      <point x="525" y="205" type="line"/>
      <point x="525" y="220" type="line"/>
      <point x="510" y="220" type="line"/>
      <point x="510" y="205" type="line"/>
    </contour>
    <contour>
      <point x="540" y="205" type="line"/>
      <point x="540" y="220" type="line"/>
      <point x="525" y="220" type="line"/>
      <point x="525" y="205" type="line"/>
    </contour>
    <contour>
      <point x="555" y="205" type="line"/>
      <point x="555" y="220" type="line"/>
      <point x="540" y="220" type="line"/>
      <point x="540" y="205" type="line"/>
    </contour>
    <contour>
      <point x="570" y="205" type="line"/>
      <point x="570" y="220" type="line"/>
      <point x="555" y="220" type="line"/>
      <point x="555" y="205" type="line"/>
    </contour>
    <contour>
      <point x="585" y="205" type="line"/>
      <point x="585" y="220" type="line"/>
      <point x="570" y="220" type="line"/>
      <point x="570" y="205" type="line"/>
    </contour>
    <contour>
      <point x="600" y="205" type="line"/>
      <point x="600" y="220" type="line"/>
      <point x="585" y="220" type="line"/>
      <point x="585" y="205" type="line"/>
    </contour>
    <contour>
      <point x="615" y="205" type="line"/>
      <point x="615" y="220" type="line"/>
      <point x="600" y="220" type="line"/>
      <point x="600" y="205" type="line"/>
    </contour>
    <contour>
      <point x="630" y="205" type="line"/>
      <point x="630" y="220" type="line"/>
      <point x="615" y="220" type="line"/>
      <point x="615" y="205" type="line"/>
    </contour>
    <contour>
      <point x="645" y="205" type="line"/>
      <point x="645" y="220" type="line"/>
      <point x="630" y="220" type="line"/>
      <point x="630" y="205" type="line"/>
    </contour>
    <contour>
      <point x="660" y="205" type="line"/>
      <point x="660" y="220" type="line"/>
      <point x="645" y="220" type="line"/>
      <point x="645" y="205" type="line"/>
    </contour>
    <contour>
      <point x="675" y="205" type="line"/>
      <point x="675" y="220" type="line"/>
      <point x="660" y="220" type="line"/>
      <point x="660" y="205" type="line"/>
    </contour>
    <contour>
      <point x="690" y="205" type="line"/>
      <point x="690" y="220" type="line"/>
      <point x="675" y="220" type="line"/>
      <point x="675" y="205" type="line"/>
    </contour>
    <contour>
      <point x="705" y="205" type="line"/>
      <point x="705" y="220" type="line"/>
      <point x="690" y="220" type="line"/>
      <point x="690" y="205" type="line"/>
    </contour>
    <contour>
      <point x="720" y="205" type="line"/>
      <point x="720" y="220" type="line"/>
      <point x="705" y="220" type="line"/>
      <point x="705" y="205" type="line"/>
    </contour>
    <contour>
      <point x="735" y="205" type="line"/>
      <point x="735" y="220" type="line"/>
      <point x="720" y="220" type="line"/>
      <point x="720" y="205" type="line"/>
    </contour>
    <contour>
      <point x="750" y="205" type="line"/>
      <point x="750" y="220" type="line"/>
      <point x="735" y="220" type="line"/>
      <point x="735" y="205" type="line"/>
    </contour>
    <contour>
      <point x="765" y="205" type="line"/>
      <point x="765" y="220" type="line"/>
      <point x="750" y="220" type="line"/>
      <point x="750" y="205" type="line"/>
    </contour>
    <contour>
      <point x="780" y="205" type="line"/>
      <point x="780" y="220" type="line"/>
      <point x="765" y="220" type="line"/>
      <point x="765" y="205" type="line"/>
    </contour>
    <contour>
      <point x="795" y="205" type="line"/>
      <point x="795" y="220" type="line"/>
      <point x="780" y="220" type="line"/>
      <point x="780" y="205" type="line"/>
    </contour>
    <contour>
      <point x="810" y="205" type="line"/>
      <point x="810" y="220" type="line"/>
      <point x="795" y="220" type="line"/>
      <point x="795" y="205" type="line"/>
    </contour>
    <contour>
      <point x="210" y="190" type="line"/>
      <point x="210" y="205" type="line"/>
      <point x="195" y="205" type="line"/>
      <point x="195" y="190" type="line"/>
    </contour>
    <contour>
      <point x="225" y="190" type="line"/>
      <point x="225" y="205" type="line"/>
      <point x="210" y="205" type="line"/>
      <point x="210" y="190" type="line"/>
    </contour>
    <contour>
      <point x="240" y="190" type="line"/>
      <point x="240" y="205" type="line"/>
      <point x="225" y="205" type="line"/>
      <point x="225" y="190" type="line"/>
    </contour>
    <contour>
      <point x="255" y="190" type="line"/>
      <point x="255" y="205" type="line"/>
      <point x="240" y="205" type="line"/>
      <point x="240" y="190" type="line"/>
    </contour>
    <contour>
      <point x="270" y="190" type="line"/>
      <point x="270" y="205" type="line"/>
      <point x="255" y="205" type="line"/>
      <point x="255" y="190" type="line"/>
    </contour>
    <contour>
      <point x="285" y="190" type="line"/>
      <point x="285" y="205" type="line"/>
      <point x="270" y="205" type="line"/>
      <point x="270" y="190" type="line"/>
    </contour>
    <contour>
      <point x="300" y="190" type="line"/>
      <point x="300" y="205" type="line"/>
      <point x="285" y="205" type="line"/>
      <point x="285" y="190" type="line"/>
    </contour>
    <contour>
      <point x="315" y="190" type="line"/>
      <point x="315" y="205" type="line"/>
      <point x="300" y="205" type="line"/>
      <point x="300" y="190" type="line"/>
    </contour>
    <contour>
      <point x="330" y="190" type="line"/>
      <point x="330" y="205" type="line"/>
      <point x="315" y="205" type="line"/>
      <point x="315" y="190" type="line"/>
    </contour>
    <contour>
      <point x="345" y="190" type="line"/>
      <point x="345" y="205" type="line"/>
      <point x="330" y="205" type="line"/>
      <point x="330" y="190" type="line"/>
    </contour>
    <contour>
      <point x="360" y="190" type="line"/>
      <point x="360" y="205" type="line"/>
      <point x="345" y="205" type="line"/>
      <point x="345" y="190" type="line"/>
    </contour>
    <contour>
      <point x="375" y="190" type="line"/>
      <point x="375" y="205" type="line"/>
      <point x="360" y="205" type="line"/>
      <point x="360" y="190" type="line"/>
    </contour>
    <contour>
      <point x="390" y="190" type="line"/>
      <point x="390" y="205" type="line"/>
      <point x="375" y="205" type="line"/>
      <point x="375" y="190" type="line"/>
    </contour>
    <contour>
      <point x="405" y="190" type="line"/>
      <point x="405" y="205" type="line"/>
      <point x="390" y="205" type="line"/>
      <point x="390" y="190" type="line"/>
    </contour>
    <contour>
      <point x="420" y="190" type="line"/>
      <point x="420" y="205" type="line"/>
      <point x="405" y="205" type="line"/>
      <point x="405" y="190" type="line"/>
    </contour>
    <contour>
      <point x="435" y="190" type="line"/>
      <point x="435" y="205" type="line"/>
      <point x="420" y="205" type="line"/>
      <point x="420" y="190" type="line"/>
    </contour>
    <contour>
      <point x="450" y="190" type="line"/>
      <point x="450" y="205" type="line"/>
      <point x="435" y="205" type="line"/>
      <point x="435" y="190" type="line"/>
    </contour>
    <contour>
      <point x="465" y="190" type="line"/>
      <point x="465" y="205" type="line"/>
      <point x="450" y="205" type="line"/>
      <point x="450" y="190" type="line"/>
    </contour>
    <contour>
      <point x="480" y="190" type="line"/>
      <point x="480" y="205" type="line"/>
      <point x="465" y="205" type="line"/>
      <point x="465" y="190" type="line"/>
    </contour>
    <contour>
      <point x="495" y="190" type="line"/>
      <point x="495" y="205" type="line"/>
      <point x="480" y="205" type="line"/>
      <point x="480" y="190" type="line"/>
    </contour>
    <contour>
      <point x="510" y="190" type="line"/>
      <point x="510" y="205" type="line"/>
      <point x="495" y="205" type="line"/>
      <point x="495" y="190" type="line"/>
    </contour>
    <contour>
      <point x="525" y="190" type="line"/>
      <point x="525" y="205" type="line"/>
      <point x="510" y="205" type="line"/>
      <point x="510" y="190" type="line"/>
    </contour>
    <contour>
      <point x="540" y="190" type="line"/>
      <point x="540" y="205" type="line"/>
      <point x="525" y="205" type="line"/>
      <point x="525" y="190" type="line"/>
    </contour>
    <contour>
      <point x="555" y="190" type="line"/>
      <point x="555" y="205" type="line"/>
      <point x="540" y="205" type="line"/>
      <point x="540" y="190" type="line"/>
    </contour>
    <contour>
      <point x="570" y="190" type="line"/>
      <point x="570" y="205" type="line"/>
      <point x="555" y="205" type="line"/>
      <point x="555" y="190" type="line"/>
    </contour>
    <contour>
      <point x="585" y="190" type="line"/>
      <point x="585" y="205" type="line"/>
      <point x="570" y="205" type="line"/>
      <point x="570" y="190" type="line"/>
    </contour>
    <contour>
      <point x="600" y="190" type="line"/>
      <point x="600" y="205" type="line"/>
      <point x="585" y="205" type="line"/>
      <point x="585" y="190" type="line"/>
    </contour>
    <contour>
      <point x="615" y="190" type="line"/>
      <point x="615" y="205" type="line"/>
      <point x="600" y="205" type="line"/>
      <point x="600" y="190" type="line"/>
    </contour>
    <contour>
      <point x="630" y="190" type="line"/>
      <point x="630" y="205" type="line"/>
      <point x="615" y="205" type="line"/>
      <point x="615" y="190" type="line"/>
    </contour>
    <contour>
      <point x="645" y="190" type="line"/>
      <point x="645" y="205" type="line"/>
      <point x="630" y="205" type="line"/>
      <point x="630" y="190" type="line"/>
    </contour>
    <contour>
      <point x="660" y="190" type="line"/>
      <point x="660" y="205" type="line"/>
      <point x="645" y="205" type="line"/>
      <point x="645" y="190" type="line"/>
    </contour>
    <contour>
      <point x="675" y="190" type="line"/>
      <point x="675" y="205" type="line"/>
      <point x="660" y="205" type="line"/>
      <point x="660" y="190" type="line"/>
    </contour>
    <contour>
      <point x="690" y="190" type="line"/>
      <point x="690" y="205" type="line"/>
      <point x="675" y="205" type="line"/>
      <point x="675" y="190" type="line"/>
    </contour>
    <contour>
      <point x="705" y="190" type="line"/>
      <point x="705" y="205" type="line"/>
      <point x="690" y="205" type="line"/>
      <point x="690" y="190" type="line"/>
    </contour>
    <contour>
      <point x="720" y="190" type="line"/>
      <point x="720" y="205" type="line"/>
      <point x="705" y="205" type="line"/>
      <point x="705" y="190" type="line"/>
    </contour>
    <contour>
      <point x="735" y="190" type="line"/>
      <point x="735" y="205" type="line"/>
      <point x="720" y="205" type="line"/>
      <point x="720" y="190" type="line"/>
    </contour>
    <contour>
      <point x="435" y="175" type="line"/>
      <point x="435" y="190" type="line"/>
      <point x="420" y="190" type="line"/>
      <point x="420" y="175" type="line"/>
    </contour>
    <contour>
      <point x="450" y="175" type="line"/>
      <point x="450" y="190" type="line"/>
      <point x="435" y="190" type="line"/>
      <point x="435" y="175" type="line"/>
    </contour>
    <contour>
      <point x="420" y="160" type="line"/>
      <point x="420" y="175" type="line"/>
      <point x="405" y="175" type="line"/>
      <point x="405" y="160" type="line"/>
    </contour>
    <contour>
      <point x="435" y="160" type="line"/>
      <point x="435" y="175" type="line"/>
      <point x="420" y="175" type="line"/>
      <point x="420" y="160" type="line"/>
    </contour>
    <contour>
      <point x="390" y="145" type="line"/>
      <point x="390" y="160" type="line"/>
      <point x="375" y="160" type="line"/>
      <point x="375" y="145" type="line"/>
    </contour>
    <contour>
      <point x="405" y="145" type="line"/>
      <point x="405" y="160" type="line"/>
      <point x="390" y="160" type="line"/>
      <point x="390" y="145" type="line"/>
    </contour>
    <contour>
      <point x="420" y="145" type="line"/>
      <point x="420" y="160" type="line"/>
      <point x="405" y="160" type="line"/>
      <point x="405" y="145" type="line"/>
    </contour>
    <contour>
      <point x="435" y="145" type="line"/>
      <point x="435" y="160" type="line"/>
      <point x="420" y="160" type="line"/>
      <point x="420" y="145" type="line"/>
    </contour>
  </outline>
</glyph>
